<?xml version="1.0" encoding="UTF-8"?>
<!DOCTYPE svg PUBLIC "-//W3C//DTD SVG 1.1//EN" "http://www.w3.org/Graphics/SVG/1.1/DTD/svg11.dtd">
<!-- Creator: CorelDRAW X8 -->
<svg xmlns="http://www.w3.org/2000/svg" xml:space="preserve" width="5.0713mm" height="5.0714mm" version="1.1" style="shape-rendering:geometricPrecision; text-rendering:geometricPrecision; image-rendering:optimizeQuality; fill-rule:evenodd; clip-rule:evenodd"
viewBox="0 0 30 30"
 xmlns:xlink="http://www.w3.org/1999/xlink">
 <defs>
  <style type="text/css">
   <![CDATA[
    .fil0 {fill:#007D4E;fill-rule:nonzero}
   ]]>
  </style>
 </defs>
 <g id="Слой_x0020_1">
  <metadata id="CorelCorpID_0Corel-Layer"/>
  <path fill="currentColor" d="M5 14c-1,0 -2,1 -2,2 0,2 1,3 2,3 2,0 3,-1 3,-3 0,-1 -1,-2 -3,-2zm0 -6l2 0c1,0 2,-1 2,-2l4 0c0,0 1,0 1,-1 0,0 -1,0 -1,0l-4 0 0 -2 9 0 0 3c0,1 1,2 2,2l5 0c1,0 1,0 1,0 0,-1 0,-1 -1,-1l-4 0 0 -2 5 0c0,0 0,-1 0,-1 0,0 0,-1 0,-1l-5 0 0 -2 4 0c1,0 1,0 1,0 0,-1 0,-1 -1,-1l-5 0c-1,0 -2,1 -2,2l0 0 -9 0c0,-1 -1,-2 -2,-2l-2 0c-1,0 -1,1 -1,1l0 6c0,0 0,1 1,1zm14 -6c0,0 1,-1 1,-1l0 0 0 6 0 0c0,0 -1,0 -1,-1l0 -4zm-14 0l2 0c1,0 1,0 1,1l0 2c0,1 0,1 -1,1l-2 0 0 -4zm11 3c0,0 -1,0 -1,0 0,0 1,1 1,1 0,0 0,0 0,0 0,0 0,0 0,0 1,0 1,-1 1,-1 0,0 0,0 -1,0 0,0 0,0 0,0 0,0 0,0 0,0zm14 11c0,0 -1,-1 -1,-1 0,-1 0,-2 -1,-2 -1,-1 -1,-1 -2,-1 0,0 -1,-1 -2,-1 -1,0 -1,1 -2,1 0,0 -1,0 -1,1 -1,0 -1,1 -1,2 0,0 0,0 0,0 -1,0 -1,0 -1,0 0,-1 0,-2 0,-2 -1,-1 -2,-1 -2,-1 -1,0 -1,-1 -2,-1 -1,0 -2,1 -2,1 -1,0 -1,0 -2,1 -1,0 -1,1 0,2 -1,0 -1,0 -1,0 0,0 0,0 0,0 0,-1 0,-2 -1,-2 0,-1 -1,-1 -2,-1 0,0 -1,-1 -2,-1 0,0 -1,1 -1,1 -1,0 -2,0 -2,1 -1,0 -1,1 -1,2 -1,0 -1,1 -1,1 0,1 0,2 1,2 0,1 0,2 1,2 0,1 1,1 2,1 0,0 0,1 1,1l0 4c-1,-1 -2,-2 -3,-3l0 0c0,0 -1,0 -1,0 0,0 0,1 0,1l0 0c2,2 3,3 4,5 0,0 0,1 0,1 1,0 1,-1 1,-1 0,-2 2,-3 3,-5l1 0c0,0 0,-1 0,-1 -1,0 -1,0 -1,0l0 0c-2,1 -2,2 -3,3l0 -4c0,0 1,-1 1,-1 1,0 2,0 2,-1 1,0 1,-1 1,-2 0,0 0,0 0,0 0,0 0,0 1,0 -1,1 -1,2 0,2 1,1 1,1 2,1 0,0 1,1 1,1l0 4c0,-1 -1,-2 -2,-3l-1 0c0,0 0,0 0,0 -1,0 -1,1 0,1l0 0c1,2 3,3 3,5 0,0 0,1 1,1 0,0 0,0 0,0 0,0 0,0 0,0 0,0 0,0 0,0 0,0 0,0 0,0 0,0 0,-1 0,-1 1,-2 2,-3 4,-5l0 0c0,0 0,-1 0,-1 0,0 0,0 -1,0l0 0c-1,1 -2,2 -3,3l0 -4c1,0 1,-1 2,-1 0,0 1,0 2,-1 0,0 0,-1 0,-2 0,0 0,0 1,0 0,0 0,0 0,0 0,1 0,2 1,2 0,1 1,1 1,1 1,0 1,1 2,1l0 4c-1,-1 -2,-2 -3,-3l0 0c0,0 -1,0 -1,0 0,0 0,1 0,1l0 0c2,2 3,3 4,5 0,0 0,1 0,1 0,0 0,0 0,0 0,0 0,0 0,0 1,0 1,-1 1,-1 0,-2 2,-3 3,-5l0 0c1,0 1,-1 1,-1 -1,0 -1,0 -1,0l-1 0c-1,1 -1,2 -2,3l0 -4c0,0 1,-1 1,-1 1,0 1,0 2,-1 1,0 1,-1 1,-2 0,0 1,-1 1,-2zm-21 1c-1,0 -1,0 -1,1 0,0 0,0 0,0 1,1 1,1 0,1 0,1 -1,1 -1,0 0,0 0,0 -1,0 0,0 0,1 0,1 0,0 0,1 -1,1 0,0 0,-1 -1,-1 0,0 0,-1 0,-1 0,0 0,0 0,0 0,0 0,0 0,0 -1,1 -1,1 -2,0 0,0 0,0 0,-1 1,0 1,0 0,0 0,-1 0,-1 0,-1 0,0 -1,0 -1,-1 0,0 1,0 1,0 0,0 0,-1 0,-1 1,0 1,0 0,0 0,-1 0,-1 0,-2 1,0 1,0 2,0 0,1 0,1 0,1 0,0 0,-1 0,-1 1,0 1,-1 1,-1 1,0 1,1 1,1 0,0 0,1 0,1 1,0 1,0 1,-1 0,0 1,0 1,0 1,1 1,1 0,2 0,0 0,0 0,0 0,0 0,1 1,1 0,0 0,0 0,0 0,1 0,1 0,1zm9 0c0,0 0,0 0,1 0,0 0,0 0,0 0,1 0,1 0,1 -1,1 -1,1 -1,0 -1,0 -1,0 -1,0 0,0 0,1 0,1 0,0 -1,1 -1,1 -1,0 -1,-1 -1,-1 0,0 0,-1 0,-1 0,0 -1,0 -1,0 0,0 0,0 0,0 0,1 -1,1 -1,0 0,0 0,0 0,-1 0,0 0,0 0,0 0,-1 0,-1 -1,-1 0,0 0,0 0,-1 0,0 0,0 0,0 1,0 1,-1 1,-1 0,0 0,0 0,0 0,-1 0,-1 0,-2 0,0 1,0 1,0 0,1 0,1 1,1 0,0 0,-1 0,-1 0,0 0,-1 1,-1 0,0 1,1 1,1 0,0 0,1 0,1 0,0 0,0 1,-1 0,0 0,0 1,0 0,1 0,1 0,2 0,0 0,0 0,0 0,0 0,1 0,1 1,0 1,0 1,0 0,1 0,1 -1,1zm10 0c-1,0 -1,0 -1,1 0,0 0,0 0,0 1,1 1,1 0,1 0,1 -1,1 -1,0 0,0 0,0 -1,0 0,0 0,1 0,1 0,0 0,1 -1,1 0,0 -1,-1 -1,-1 0,0 0,-1 0,-1 0,0 0,0 0,0 0,0 0,0 -1,0 0,1 0,1 -1,0 0,0 0,0 0,-1 0,0 1,0 0,0 0,-1 0,-1 0,-1 -1,0 -1,0 -1,-1 0,0 0,0 1,0 0,0 0,-1 0,-1 1,0 0,0 0,0 0,-1 0,-1 0,-2 1,0 1,0 1,0 1,1 1,1 1,1 0,0 0,-1 0,-1 0,0 1,-1 1,-1 1,0 1,1 1,1 0,0 0,1 0,1 1,0 1,0 1,-1 0,0 1,0 1,0 1,1 1,1 0,2 0,0 0,0 0,0 0,0 0,1 1,1 0,0 0,0 0,0 0,1 0,1 0,1zm-4 -3c-1,0 -2,1 -2,2 0,2 1,3 2,3 1,0 2,-1 2,-3 0,-1 -1,-2 -2,-2zm0 3c0,0 -1,0 -1,-1 0,0 1,-1 1,-1 1,0 1,1 1,1 0,1 0,1 -1,1zm-9 -3c-1,0 -2,1 -2,2 0,2 1,3 2,3 1,0 2,-1 2,-3 0,-1 -1,-2 -2,-2zm0 3c-1,0 -1,0 -1,-1 0,0 0,-1 1,-1 0,0 1,1 1,1 0,1 -1,1 -1,1zm-10 0c0,0 -1,0 -1,-1 0,0 1,-1 1,-1 1,0 1,1 1,1 0,1 0,1 -1,1z"/>
 </g>
</svg>
